%!PS-Adobe-3.0
%%Title: alpha_2.ps
%%Creator: matplotlib version 1.5.0, http://matplotlib.org/
%%CreationDate: Wed Apr  6 23:54:23 2016
%%Orientation: portrait
%%DocumentPaperSizes: letter
%%BoundingBox: 234 180 378 612
%%Pages: 1
%%EndComments
%%BeginProlog
/mpldict 7 dict def
mpldict begin
/m { moveto } bind def
/l { lineto } bind def
/r { rlineto } bind def
/c { curveto } bind def
/cl { closepath } bind def
/box {
m
1 index 0 r
0 exch r
neg 0 r
cl
} bind def
/clipbox {
box
clip
newpath
} bind def
end
%%EndProlog
%%Page: 1 1
mpldict begin
234 180 translate
144 432 0 0 clipbox
100000 setmiterlimit
gsave
0 0 m
144 0 l
144 432 l
0 432 l
cl
1.000 setgray
fill
grestore
gsave
18.248552 54 m
129.351448 54 l
129.351448 388.8 l
18.248552 388.8 l
cl
1.000 setgray
fill
grestore
gsave
111.1 334.8 18.25 54 clipbox
68.207572 316.097202 m
68.953229 316.097264 l
69.698886 316.097258 l
70.444543 316.097254 l
71.1902 316.09725 l
71.935857 316.097248 l
72.681514 316.097246 l
73.427171 316.097245 l
74.172829 316.097245 l
74.918486 316.097246 l
75.664143 316.097248 l
76.4098 316.09725 l
77.155457 316.097254 l
77.901114 316.097258 l
78.646771 316.097264 l
79.392428 316.097202 l
79.764067 315.725612 l
80.138085 315.351641 l
80.883742 315.351583 l
81.629399 315.351592 l
82.375056 315.351533 l
82.746686 314.979955 l
83.120713 314.605977 l
83.86637 314.605922 l
84.612027 314.605866 l
84.983648 314.234298 l
85.357684 313.860314 l
86.103341 313.860262 l
86.848998 313.860207 l
87.22062 313.488641 l
87.594655 313.11466 l
88.340312 313.11461 l
89.085969 313.114559 l
89.4576 312.742984 l
89.831626 312.369014 l
90.577283 312.368897 l
90.948912 311.997327 l
91.32294 311.623356 l
92.068597 311.623241 l
92.440227 311.25167 l
92.814254 310.877702 l
93.559911 310.877589 l
93.931548 310.506013 l
94.305568 310.131983 l
94.67719 309.760356 l
95.051225 309.386383 l
95.796882 309.386272 l
96.168517 309.014699 l
96.542539 308.640671 l
96.914164 308.269042 l
97.288196 307.895075 l
98.033853 307.894967 l
98.405498 307.523385 l
98.77951 307.149369 l
99.151149 306.777728 l
99.525167 306.403708 l
99.896803 306.032071 l
100.270824 305.658048 l
100.642457 305.286414 l
101.016481 304.91239 l
101.388114 304.540757 l
101.762138 304.166734 l
102.133772 303.7951 l
102.507795 303.421079 l
102.879432 303.049443 l
103.253452 302.675426 l
103.625094 302.303786 l
103.999109 301.929776 l
104.370692 301.558129 l
104.3708 300.812472 l
104.744766 300.438441 l
105.116396 300.066815 l
105.490423 299.692795 l
105.861998 299.321158 l
105.862109 298.575501 l
106.23608 298.201468 l
106.607709 297.829844 l
106.981737 297.455826 l
107.353316 297.084187 l
107.353429 296.33853 l
107.727394 295.964506 l
108.098968 295.592873 l
108.099083 294.847216 l
108.473051 294.473191 l
108.844625 294.101559 l
108.844741 293.355902 l
109.218708 292.981879 l
109.590286 292.610245 l
109.590403 291.864588 l
109.964365 291.490573 l
110.335951 291.118931 l
110.336004 290.373274 l
110.336055 289.627617 l
110.710022 289.253599 l
111.081607 288.88196 l
111.081662 288.136303 l
111.081649 287.390646 l
111.081705 286.644989 l
111.455679 286.270966 l
111.827261 285.899332 l
111.82732 285.153675 l
111.82731 284.408018 l
111.827368 283.662361 l
112.201336 283.288347 l
112.57293 282.916704 l
112.572991 282.171047 l
112.572986 281.42539 l
112.572981 280.679733 l
112.572978 279.934076 l
112.572975 279.188419 l
112.572973 278.442762 l
112.572972 277.697105 l
112.572972 276.951448 l
112.572973 276.205791 l
112.572974 275.460134 l
112.572977 274.714477 l
112.57298 273.96882 l
112.572984 273.223163 l
112.572989 272.477506 l
112.572995 271.731849 l
112.572935 270.986192 l
112.201336 270.614543 l
111.827373 270.240535 l
111.827316 269.494878 l
111.827326 268.74922 l
111.827268 268.003563 l
111.455679 267.631922 l
111.081711 267.257906 l
111.081658 266.512249 l
111.081671 265.766592 l
111.081617 265.020935 l
110.710022 264.649287 l
110.336064 264.275278 l
110.335947 263.529621 l
109.964365 263.157985 l
109.590396 262.783964 l
109.590348 262.038307 l
109.5903 261.29265 l
109.218708 260.921004 l
108.844752 260.546993 l
108.84464 259.801336 l
108.473051 259.429691 l
108.099095 259.055679 l
108.098984 258.310022 l
107.727394 257.938374 l
107.353374 257.564365 l
106.981737 257.192735 l
106.60777 256.818708 l
106.607661 256.073051 l
106.23608 255.70141 l
105.862056 255.327394 l
105.490423 254.955766 l
105.116456 254.581737 l
105.11635 253.83608 l
104.744766 253.464435 l
104.370748 253.090423 l
103.999109 252.718786 l
103.625085 252.344766 l
103.253452 251.973136 l
102.879423 251.599109 l
102.507795 251.227483 l
102.133762 250.853452 l
101.762138 250.481829 l
101.388104 250.107795 l
101.016481 249.736173 l
100.642447 249.362138 l
100.270824 248.990515 l
99.896792 248.616481 l
99.525167 248.244855 l
99.151138 247.870824 l
98.77951 247.499194 l
98.405486 247.125167 l
98.033853 246.753531 l
97.659837 246.37951 l
97.288196 246.007932 l
96.542539 246.007824 l
96.168505 245.633853 l
95.796882 245.262226 l
95.42286 244.888196 l
95.051225 244.516623 l
94.305568 244.516512 l
93.931534 244.142539 l
93.559911 243.77091 l
93.185894 243.396882 l
92.814254 243.025302 l
92.068597 243.025189 l
91.694576 242.651225 l
91.32294 242.279648 l
90.577283 242.279533 l
90.203262 241.905568 l
89.831626 241.533989 l
89.085969 241.533939 l
88.340312 241.53389 l
87.966279 241.159911 l
87.594655 240.788343 l
86.848998 240.788223 l
86.474976 240.414254 l
86.103341 240.042673 l
85.357684 240.042619 l
84.612027 240.042633 l
83.86637 240.042578 l
83.492339 239.668597 l
83.120713 239.297024 l
82.375056 239.296965 l
81.629399 239.296976 l
80.883742 239.296918 l
80.509717 238.92294 l
80.138085 238.551359 l
79.392428 238.551297 l
78.646771 238.551304 l
77.901114 238.551309 l
77.155457 238.551313 l
76.4098 238.551317 l
75.664143 238.55132 l
74.918486 238.551321 l
74.172829 238.551322 l
73.427171 238.551322 l
72.681514 238.551321 l
71.935857 238.55132 l
71.1902 238.551317 l
70.444543 238.551313 l
69.698886 238.551309 l
68.953229 238.551304 l
68.207572 238.551298 l
67.461915 238.55129 l
66.716258 238.55135 l
66.344618 238.92294 l
65.970601 239.29691 l
65.224944 239.296966 l
64.479287 239.296955 l
63.73363 239.297011 l
63.361992 239.668597 l
62.987973 240.042567 l
62.242316 240.042619 l
61.496659 240.042673 l
61.125024 240.414254 l
60.751002 240.788225 l
60.005345 240.788274 l
59.259688 240.788325 l
58.888047 241.159911 l
58.514031 241.533874 l
57.768374 241.533988 l
57.396738 241.905568 l
57.022717 242.279534 l
56.27706 242.279647 l
55.905424 242.651225 l
55.531403 243.02519 l
54.785746 243.025301 l
54.414107 243.396882 l
54.040089 243.770842 l
53.294432 243.77095 l
52.922784 244.142539 l
52.548775 244.516557 l
52.177141 244.888196 l
51.803118 245.262158 l
51.057461 245.262264 l
50.685811 245.633853 l
50.311804 246.007867 l
49.940163 246.37951 l
49.566147 246.753531 l
49.194514 247.125167 l
48.82049 247.499127 l
48.074833 247.499228 l
47.703175 247.870824 l
47.329176 248.244825 l
46.957521 248.616481 l
46.583519 248.990484 l
46.211865 249.362138 l
45.837862 249.736141 l
45.466207 250.107795 l
45.092205 250.481796 l
44.720547 250.853452 l
44.346548 251.227449 l
43.97495 251.599109 l
43.974848 252.344766 l
43.600891 252.718787 l
43.229251 253.090423 l
42.855234 253.464436 l
42.483586 253.83608 l
42.109577 254.210083 l
41.737982 254.581737 l
41.737877 255.327394 l
41.36392 255.701411 l
40.992275 256.073051 l
40.618263 256.447053 l
40.246666 256.818708 l
40.246558 257.564365 l
39.872606 257.938375 l
39.501016 258.310022 l
39.500905 259.055679 l
39.126949 259.429691 l
38.75536 259.801336 l
38.755248 260.546993 l
38.381292 260.921003 l
38.0097 261.29265 l
38.009651 262.038307 l
38.009604 262.783964 l
37.635635 263.157985 l
37.264053 263.529621 l
37.263936 264.275278 l
36.889978 264.649287 l
36.518382 265.020935 l
36.518329 265.766592 l
36.518342 266.512249 l
36.518289 267.257906 l
36.144321 267.631922 l
35.772731 268.003563 l
35.772674 268.74922 l
35.772684 269.494878 l
35.772627 270.240535 l
35.398664 270.614543 l
35.027065 270.986192 l
35.027005 271.731849 l
35.027011 272.477506 l
35.027016 273.223163 l
35.02702 273.96882 l
35.027023 274.714477 l
35.027026 275.460134 l
35.027027 276.205791 l
35.027028 276.951448 l
35.027028 277.697105 l
35.027027 278.442762 l
35.027025 279.188419 l
35.027022 279.934076 l
35.027019 280.679733 l
35.027014 281.42539 l
35.027009 282.171047 l
35.02707 282.916704 l
35.398664 283.288347 l
35.772632 283.662361 l
35.77269 284.408018 l
35.77268 285.153675 l
35.772739 285.899332 l
36.144321 286.270966 l
36.518295 286.644989 l
36.51835 287.390646 l
36.518338 288.136303 l
36.518393 288.88196 l
36.889978 289.253599 l
37.263945 289.627617 l
37.263996 290.373274 l
37.264048 291.118931 l
37.635635 291.490573 l
38.009597 291.864588 l
38.009714 292.610245 l
38.381292 292.98188 l
38.755259 293.355902 l
38.755375 294.101559 l
39.126949 294.473191 l
39.500917 294.847216 l
39.501032 295.592873 l
39.872606 295.964506 l
40.246571 296.33853 l
40.246684 297.084187 l
40.618263 297.455826 l
40.992291 297.829844 l
41.36392 298.201468 l
41.737891 298.575501 l
41.738002 299.321158 l
42.109577 299.692795 l
42.483604 300.066815 l
42.855234 300.438442 l
43.2292 300.812472 l
43.229308 301.558129 l
43.600891 301.929776 l
43.974906 302.303786 l
44.346548 302.675426 l
44.720568 303.049443 l
45.092205 303.421079 l
45.466228 303.7951 l
45.837862 304.166734 l
46.211886 304.540757 l
46.583519 304.91239 l
46.957543 305.286414 l
47.329176 305.658048 l
47.703197 306.032071 l
48.074833 306.403708 l
48.448851 306.777728 l
48.82049 307.14937 l
49.194501 307.523385 l
49.566147 307.894969 l
50.311804 307.895073 l
50.685836 308.269042 l
51.057461 308.640671 l
51.431483 309.014699 l
51.803118 309.386338 l
52.177128 309.760356 l
52.548775 310.131944 l
53.294432 310.132051 l
53.668453 310.506013 l
54.040089 310.877591 l
54.785746 310.877701 l
55.159773 311.25167 l
55.531403 311.623242 l
56.27706 311.623355 l
56.651088 311.997327 l
57.022717 312.368899 l
57.768374 312.369013 l
58.1424 312.742984 l
58.514031 313.114559 l
59.259688 313.114675 l
59.633707 313.488641 l
60.005345 313.860225 l
60.751002 313.860277 l
61.496659 313.860327 l
61.870681 314.234298 l
62.242316 314.60588 l
62.987973 314.605935 l
63.73363 314.605987 l
64.107646 314.979955 l
64.479287 315.351544 l
65.224944 315.351602 l
65.970601 315.351592 l
66.716258 315.351583 l
67.461915 315.35164 l
67.835933 315.725612 l
cl
  << /PatternType 1
     /PaintType 2
     /TilingType 2
     /BBox[0 0 72 72]
     /XStep 72
     /YStep 72

     /PaintProc {
        pop
        0 setlinewidth
-36 36 m
36 108 l
-30 30 m
42 102 l
-24 24 m
48 96 l
-18 18 m
54 90 l
-12 12 m
60 84 l
-6 6 m
66 78 l
0 0 m
72 72 l
6 -6 m
78 66 l
12 -12 m
84 60 l
18 -18 m
90 54 l
24 -24 m
96 48 l
30 -30 m
102 42 l
36 -36 m
108 36 l
          stroke
     } bind
   >>
   matrix
   makepattern
   /H0 exch def
gsave
[/Pattern [/DeviceRGB]] setcolorspace 0.000000 0.000000 0.000000 H0 setcolor fill grestore
grestore
1.000 setlinewidth
1 setlinejoin
0 setlinecap
[] 0 setdash
0.000 setgray
gsave
111.1 334.8 18.25 54 clipbox
68.207572 316.097202 m
67.461915 315.35164 l
64.479287 315.351544 l
63.73363 314.605987 l
62.242316 314.60588 l
61.496659 313.860327 l
60.005345 313.860225 l
59.259688 313.114675 l
58.514031 313.114559 l
57.768374 312.369013 l
57.022717 312.368899 l
56.27706 311.623355 l
55.531403 311.623242 l
54.785746 310.877701 l
54.040089 310.877591 l
53.294432 310.132051 l
52.548775 310.131944 l
50.311804 307.895073 l
49.566147 307.894969 l
43.229308 301.558129 l
43.2292 300.812472 l
41.738002 299.321158 l
41.737891 298.575501 l
40.246684 297.084187 l
40.246571 296.33853 l
39.501032 295.592873 l
39.500917 294.847216 l
38.755375 294.101559 l
38.755259 293.355902 l
38.009714 292.610245 l
38.009597 291.864588 l
37.264048 291.118931 l
37.263945 289.627617 l
36.518393 288.88196 l
36.518295 286.644989 l
35.772739 285.899332 l
35.772632 283.662361 l
35.02707 282.916704 l
35.027065 270.986192 l
35.772627 270.240535 l
35.772731 268.003563 l
36.518289 267.257906 l
36.518382 265.020935 l
37.263936 264.275278 l
37.264053 263.529621 l
38.009604 262.783964 l
38.0097 261.29265 l
38.755248 260.546993 l
38.75536 259.801336 l
39.500905 259.055679 l
39.501016 258.310022 l
40.246558 257.564365 l
40.246666 256.818708 l
41.737877 255.327394 l
41.737982 254.581737 l
43.974848 252.344766 l
43.97495 251.599109 l
48.074833 247.499228 l
48.82049 247.499127 l
51.057461 245.262264 l
51.803118 245.262158 l
53.294432 243.77095 l
54.040089 243.770842 l
54.785746 243.025301 l
55.531403 243.02519 l
56.27706 242.279647 l
57.022717 242.279534 l
57.768374 241.533988 l
58.514031 241.533874 l
59.259688 240.788325 l
60.751002 240.788225 l
61.496659 240.042673 l
62.987973 240.042567 l
63.73363 239.297011 l
65.970601 239.29691 l
66.716258 238.55135 l
80.138085 238.551359 l
80.883742 239.296918 l
83.120713 239.297024 l
83.86637 240.042578 l
86.103341 240.042673 l
86.848998 240.788223 l
87.594655 240.788343 l
88.340312 241.53389 l
89.831626 241.533989 l
90.577283 242.279533 l
91.32294 242.279648 l
92.068597 243.025189 l
92.814254 243.025302 l
94.305568 244.516512 l
95.051225 244.516623 l
96.542539 246.007824 l
97.288196 246.007932 l
105.11635 253.83608 l
105.116456 254.581737 l
106.607661 256.073051 l
106.60777 256.818708 l
108.098984 258.310022 l
108.099095 259.055679 l
108.84464 259.801336 l
108.844752 260.546993 l
109.5903 261.29265 l
109.590396 262.783964 l
110.335947 263.529621 l
110.336064 264.275278 l
111.081617 265.020935 l
111.081711 267.257906 l
111.827268 268.003563 l
111.827373 270.240535 l
112.572935 270.986192 l
112.57293 282.916704 l
111.827368 283.662361 l
111.827261 285.899332 l
111.081705 286.644989 l
111.081607 288.88196 l
110.336055 289.627617 l
110.335951 291.118931 l
109.590403 291.864588 l
109.590286 292.610245 l
108.844741 293.355902 l
108.844625 294.101559 l
108.099083 294.847216 l
108.098968 295.592873 l
107.353429 296.33853 l
107.353316 297.084187 l
105.862109 298.575501 l
105.861998 299.321158 l
104.3708 300.812472 l
104.370692 301.558129 l
98.033853 307.894967 l
97.288196 307.895075 l
95.796882 309.386272 l
95.051225 309.386383 l
93.559911 310.877589 l
92.814254 310.877702 l
92.068597 311.623241 l
91.32294 311.623356 l
90.577283 312.368897 l
89.831626 312.369014 l
89.085969 313.114559 l
87.594655 313.11466 l
86.848998 313.860207 l
85.357684 313.860314 l
84.612027 314.605866 l
83.120713 314.605977 l
82.375056 315.351533 l
80.138085 315.351641 l
79.392428 316.097202 l
68.207572 316.097202 l
68.207572 316.097202 l
stroke
grestore
0 setlinejoin
2 setlinecap
gsave
129.351448 54 m
129.351448 388.8 l
stroke
grestore
gsave
18.248552 54 m
129.351448 54 l
stroke
grestore
gsave
18.248552 54 m
18.248552 388.8 l
stroke
grestore
gsave
18.248552 388.8 m
129.351448 388.8 l
stroke
grestore

end
showpage
%%EOF
