%!PS-Adobe-3.0
%%Title: alpha_0.ps
%%Creator: matplotlib version 1.5.0, http://matplotlib.org/
%%CreationDate: Wed Apr  6 23:54:23 2016
%%Orientation: portrait
%%DocumentPaperSizes: letter
%%BoundingBox: 234 180 378 612
%%Pages: 1
%%EndComments
%%BeginProlog
/mpldict 7 dict def
mpldict begin
/m { moveto } bind def
/l { lineto } bind def
/r { rlineto } bind def
/c { curveto } bind def
/cl { closepath } bind def
/box {
m
1 index 0 r
0 exch r
neg 0 r
cl
} bind def
/clipbox {
box
clip
newpath
} bind def
end
%%EndProlog
%%Page: 1 1
mpldict begin
234 180 translate
144 432 0 0 clipbox
100000 setmiterlimit
gsave
0 0 m
144 0 l
144 432 l
0 432 l
cl
1.000 setgray
fill
grestore
gsave
18.248552 54 m
129.351448 54 l
129.351448 388.8 l
18.248552 388.8 l
cl
1.000 setgray
fill
grestore
gsave
111.1 334.8 18.25 54 clipbox
18.994209 388.8 m
19.739866 388.8 l
20.485523 388.8 l
21.23118 388.8 l
21.976837 388.8 l
22.722494 388.8 l
23.468151 388.8 l
24.213808 388.8 l
24.959465 388.8 l
25.705122 388.8 l
26.45078 388.8 l
27.196437 388.8 l
27.942094 388.8 l
28.687751 388.8 l
29.433408 388.8 l
30.179065 388.8 l
30.924722 388.8 l
31.670379 388.8 l
32.416036 388.8 l
33.161693 388.8 l
33.90735 388.8 l
34.653007 388.8 l
35.398664 388.8 l
36.144321 388.8 l
36.889978 388.8 l
37.635635 388.8 l
38.381292 388.8 l
39.126949 388.8 l
39.872606 388.8 l
40.618263 388.8 l
41.36392 388.8 l
42.109577 388.8 l
42.855234 388.8 l
43.600891 388.8 l
44.346548 388.8 l
45.092205 388.8 l
45.837862 388.8 l
46.583519 388.8 l
47.329176 388.8 l
48.074833 388.8 l
48.82049 388.8 l
49.566147 388.8 l
50.311804 388.8 l
51.057461 388.8 l
51.803118 388.8 l
52.548775 388.8 l
53.294432 388.8 l
54.040089 388.8 l
54.785746 388.8 l
55.531403 388.8 l
56.27706 388.8 l
57.022717 388.8 l
57.768374 388.8 l
58.514031 388.8 l
59.259688 388.8 l
60.005345 388.8 l
60.751002 388.8 l
61.496659 388.8 l
62.242316 388.8 l
62.987973 388.8 l
63.73363 388.8 l
64.479287 388.8 l
65.224944 388.8 l
65.970601 388.8 l
66.716258 388.8 l
67.461915 388.8 l
68.207572 388.8 l
68.953229 388.8 l
69.698886 388.8 l
70.444543 388.8 l
71.1902 388.8 l
71.935857 388.8 l
72.681514 388.8 l
73.427171 388.8 l
74.172829 388.8 l
74.918486 388.8 l
75.664143 388.8 l
76.4098 388.8 l
77.155457 388.8 l
77.901114 388.8 l
78.646771 388.8 l
79.392428 388.8 l
80.138085 388.8 l
80.883742 388.8 l
81.629399 388.8 l
82.375056 388.8 l
83.120713 388.8 l
83.86637 388.8 l
84.612027 388.8 l
85.357684 388.8 l
86.103341 388.8 l
86.848998 388.8 l
87.594655 388.8 l
88.340312 388.8 l
89.085969 388.8 l
89.831626 388.8 l
90.577283 388.8 l
91.32294 388.8 l
92.068597 388.8 l
92.814254 388.8 l
93.559911 388.8 l
94.305568 388.8 l
95.051225 388.8 l
95.796882 388.8 l
96.542539 388.8 l
97.288196 388.8 l
98.033853 388.8 l
98.77951 388.8 l
99.525167 388.8 l
100.270824 388.8 l
101.016481 388.8 l
101.762138 388.8 l
102.507795 388.8 l
103.253452 388.8 l
103.999109 388.8 l
104.744766 388.8 l
105.490423 388.8 l
106.23608 388.8 l
106.981737 388.8 l
107.727394 388.8 l
108.473051 388.8 l
109.218708 388.8 l
109.964365 388.8 l
110.710022 388.8 l
111.455679 388.8 l
112.201336 388.8 l
112.946993 388.8 l
113.69265 388.8 l
114.438307 388.8 l
115.183964 388.8 l
115.929621 388.8 l
116.675278 388.8 l
117.420935 388.8 l
118.166592 388.8 l
118.912249 388.8 l
119.657906 388.8 l
120.403563 388.8 l
121.14922 388.8 l
121.894878 388.8 l
122.640535 388.8 l
123.386192 388.8 l
124.131849 388.8 l
124.877506 388.8 l
125.623163 388.8 l
126.36882 388.8 l
127.114477 388.8 l
127.860134 388.8 l
128.605791 388.8 l
129.351448 388.8 l
129.351448 388.054343 l
129.351448 387.308686 l
129.351448 386.563029 l
129.351448 385.817372 l
129.351448 385.071715 l
129.351448 384.326058 l
129.351448 383.580401 l
129.351448 382.834744 l
129.351448 382.089087 l
129.351448 381.34343 l
129.351448 380.597773 l
129.351448 379.852116 l
129.351448 379.106459 l
129.351448 378.360802 l
129.351448 377.615145 l
129.351448 376.869488 l
129.351448 376.123831 l
129.351448 375.378174 l
129.351448 374.632517 l
129.351448 373.88686 l
129.351448 373.141203 l
129.351448 372.395546 l
129.351448 371.649889 l
129.351448 370.904232 l
129.351448 370.158575 l
129.351448 369.412918 l
129.351448 368.667261 l
129.351448 367.921604 l
129.351448 367.175947 l
129.351448 366.43029 l
129.351448 365.684633 l
129.351448 364.938976 l
129.351448 364.193318 l
129.351448 363.447661 l
129.351448 362.702004 l
129.351448 361.956347 l
129.351448 361.21069 l
129.351448 360.465033 l
129.351448 359.719376 l
129.351448 358.973719 l
129.351448 358.228062 l
129.351448 357.482405 l
129.351448 356.736748 l
129.351448 355.991091 l
129.351448 355.245434 l
129.351448 354.499777 l
129.351448 353.75412 l
129.351448 353.008463 l
129.351448 352.262806 l
129.351448 351.517149 l
129.351448 350.771492 l
129.351448 350.025835 l
129.351448 349.280178 l
129.351448 348.534521 l
129.351448 347.788864 l
129.351448 347.043207 l
129.351448 346.29755 l
129.351448 345.551893 l
129.351448 344.806236 l
129.351448 344.060579 l
129.351448 343.314922 l
129.351448 342.569265 l
129.351448 341.823608 l
129.351448 341.077951 l
129.351448 340.332294 l
129.351448 339.586637 l
129.351448 338.84098 l
129.351448 338.095323 l
129.351448 337.349666 l
129.351448 336.604009 l
129.351448 335.858352 l
129.351448 335.112695 l
129.351448 334.367038 l
129.351448 333.621381 l
129.351448 332.875724 l
129.351448 332.130067 l
129.351448 331.38441 l
129.351448 330.638753 l
129.351448 329.893096 l
129.351448 329.147439 l
129.351448 328.401782 l
129.351448 327.656125 l
129.351448 326.910468 l
129.351448 326.164811 l
129.351448 325.419154 l
129.351448 324.673497 l
129.351448 323.92784 l
129.351448 323.182183 l
129.351448 322.436526 l
129.351448 321.690869 l
129.351448 320.945212 l
129.351448 320.199555 l
129.351448 319.453898 l
129.351448 318.708241 l
129.351448 317.962584 l
129.351448 317.216927 l
129.351448 316.471269 l
129.351448 315.725612 l
129.351448 314.979955 l
129.351448 314.234298 l
129.351448 313.488641 l
129.351448 312.742984 l
129.351448 311.997327 l
129.351448 311.25167 l
129.351448 310.506013 l
129.351448 309.760356 l
129.351448 309.014699 l
129.351448 308.269042 l
129.351448 307.523385 l
129.351448 306.777728 l
129.351448 306.032071 l
129.351448 305.286414 l
129.351448 304.540757 l
129.351448 303.7951 l
129.351448 303.049443 l
129.351448 302.303786 l
129.351448 301.558129 l
129.351448 300.812472 l
129.351448 300.066815 l
129.351448 299.321158 l
129.351448 298.575501 l
129.351448 297.829844 l
129.351448 297.084187 l
129.351448 296.33853 l
129.351448 295.592873 l
129.351448 294.847216 l
129.351448 294.101559 l
129.351448 293.355902 l
129.351448 292.610245 l
129.351448 291.864588 l
129.351448 291.118931 l
129.351448 290.373274 l
129.351448 289.627617 l
129.351448 288.88196 l
129.351448 288.136303 l
129.351448 287.390646 l
129.351448 286.644989 l
129.351448 285.899332 l
129.351448 285.153675 l
129.351448 284.408018 l
129.351448 283.662361 l
129.351448 282.916704 l
129.351448 282.171047 l
129.351448 281.42539 l
129.351448 280.679733 l
129.351448 279.934076 l
129.351448 279.188419 l
129.351448 278.442762 l
129.351448 277.697105 l
129.351448 276.951448 l
129.351448 276.205791 l
129.351448 275.460134 l
129.351448 274.714477 l
129.351448 273.96882 l
129.351448 273.223163 l
129.351448 272.477506 l
129.351448 271.731849 l
129.351448 270.986192 l
129.351448 270.240535 l
129.351448 269.494878 l
129.351448 268.74922 l
129.351448 268.003563 l
129.351448 267.257906 l
129.351448 266.512249 l
129.351448 265.766592 l
129.351448 265.020935 l
129.351448 264.275278 l
129.351448 263.529621 l
129.351448 262.783964 l
129.351448 262.038307 l
129.351448 261.29265 l
129.351448 260.546993 l
129.351448 259.801336 l
129.351448 259.055679 l
129.351448 258.310022 l
129.351448 257.564365 l
129.351448 256.818708 l
129.351448 256.073051 l
129.351448 255.327394 l
129.351448 254.581737 l
129.351448 253.83608 l
129.351448 253.090423 l
129.351448 252.344766 l
129.351448 251.599109 l
129.351448 250.853452 l
129.351448 250.107795 l
129.351448 249.362138 l
129.351448 248.616481 l
129.351448 247.870824 l
129.351448 247.125167 l
129.351448 246.37951 l
129.351448 245.633853 l
129.351448 244.888196 l
129.351448 244.142539 l
129.351448 243.396882 l
129.351448 242.651225 l
129.351448 241.905568 l
129.351448 241.159911 l
129.351448 240.414254 l
129.351448 239.668597 l
129.351448 238.92294 l
129.351448 238.177283 l
129.351448 237.431626 l
129.351448 236.685969 l
129.351448 235.940312 l
129.351448 235.194655 l
129.351448 234.448998 l
129.351448 233.703341 l
129.351448 232.957684 l
129.351448 232.212027 l
129.351448 231.46637 l
129.351448 230.720713 l
129.351448 229.975056 l
129.351448 229.229399 l
129.351448 228.483742 l
129.351448 227.738085 l
129.351448 226.992428 l
129.351448 226.246771 l
129.351448 225.501114 l
129.351448 224.755457 l
129.351448 224.226317 l
128.605791 224.220491 l
127.860134 224.208802 l
127.114477 224.191174 l
126.36882 224.167485 l
125.623163 224.137559 l
124.877506 224.101151 l
124.131849 224.057934 l
123.420309 224.0098 l
123.386192 224.007501 l
122.640535 223.95099 l
121.894878 223.888509 l
121.14922 223.819933 l
120.403563 223.744996 l
119.657906 223.663246 l
118.912249 223.573986 l
118.166592 223.476206 l
117.420935 223.368499 l
116.768395 223.264143 l
116.675278 223.249201 l
115.929621 223.122902 l
115.183964 222.990439 l
114.438307 222.849873 l
113.69265 222.698481 l
112.946993 222.532616 l
112.888261 222.518486 l
112.201336 222.357044 l
111.455679 222.176855 l
110.710022 221.987827 l
109.964365 221.784608 l
109.923751 221.772829 l
109.218708 221.573568 l
108.473051 221.362716 l
107.727394 221.145566 l
107.341898 221.027171 l
106.981737 220.91746 l
106.23608 220.698602 l
105.490423 220.480088 l
104.833751 220.281514 l
104.744766 220.254732 l
103.999109 220.041071 l
103.253452 219.83308 l
102.507795 219.624551 l
102.191463 219.535857 l
101.762138 219.418701 l
101.016481 219.225264 l
100.270824 219.036864 l
99.525167 218.849068 l
99.288946 218.7902 l
98.77951 218.667266 l
98.033853 218.49697 l
97.288196 218.332717 l
96.542539 218.171422 l
95.95013 218.044543 l
95.796882 218.012306 l
95.051225 217.864633 l
94.305568 217.724657 l
93.559911 217.590171 l
92.814254 217.459505 l
92.068597 217.331489 l
91.872479 217.298886 l
91.32294 217.210698 l
90.577283 217.098439 l
89.831626 216.99246 l
89.085969 216.891618 l
88.340312 216.795461 l
87.594655 216.703099 l
86.848998 216.61471 l
86.307976 216.553229 l
86.103341 216.530634 l
85.357684 216.454423 l
84.612027 216.383941 l
83.86637 216.318596 l
83.120713 216.258386 l
82.375056 216.20284 l
81.629399 216.151891 l
80.883742 216.105588 l
80.138085 216.06366 l
79.392428 216.026237 l
78.646771 215.993432 l
77.901114 215.964945 l
77.155457 215.941125 l
76.4098 215.922161 l
75.664143 215.90694 l
74.918486 215.898117 l
74.172829 215.891359 l
73.427171 215.892745 l
72.681514 215.894822 l
71.935857 215.905898 l
71.1902 215.917441 l
70.444543 215.937461 l
69.698886 215.958969 l
68.953229 215.987371 l
68.207572 216.018917 l
67.461915 216.055624 l
66.716258 216.096837 l
65.970601 216.142229 l
65.224944 216.192701 l
64.479287 216.247334 l
63.73363 216.307154 l
62.987973 216.371681 l
62.242316 216.441719 l
61.496659 216.517284 l
61.169174 216.553229 l
60.751002 216.600585 l
60.005345 216.689036 l
59.259688 216.781386 l
58.514031 216.877694 l
57.768374 216.978606 l
57.022717 217.084734 l
56.27706 217.197113 l
55.643967 217.298886 l
55.531403 217.317684 l
54.785746 217.446681 l
54.040089 217.57832 l
53.294432 217.71378 l
52.548775 217.854736 l
51.803118 218.00343 l
51.609198 218.044543 l
51.057461 218.163842 l
50.311804 218.326917 l
49.566147 218.492963 l
48.82049 218.66515 l
48.308262 218.7902 l
48.074833 218.849065 l
47.329176 219.039177 l
46.583519 219.229966 l
45.837862 219.42606 l
45.441269 219.535857 l
45.092205 219.634981 l
44.346548 219.845918 l
43.600891 220.056594 l
42.855234 220.273578 l
42.829246 220.281514 l
42.109577 220.501514 l
41.36392 220.7223 l
40.618263 220.94379 l
40.349416 221.027171 l
39.872606 221.175126 l
39.126949 221.391775 l
38.381292 221.604269 l
37.786261 221.772829 l
37.635635 221.816322 l
36.889978 222.017644 l
36.144321 222.205471 l
35.398664 222.384967 l
34.827831 222.518486 l
34.653007 222.560081 l
33.90735 222.723442 l
33.161693 222.872944 l
32.416036 223.012109 l
31.670379 223.143546 l
30.953799 223.264143 l
30.924722 223.269148 l
30.179065 223.386772 l
29.433408 223.492942 l
28.687751 223.589481 l
27.942094 223.677729 l
27.196437 223.758646 l
26.45078 223.832889 l
25.705122 223.900881 l
24.959465 223.962864 l
24.334766 224.0098 l
24.213808 224.019033 l
23.468151 224.068788 l
22.722494 224.111421 l
21.976837 224.147351 l
21.23118 224.176895 l
20.485523 224.200288 l
19.739866 224.217699 l
18.994209 224.229246 l
18.248552 224.235002 l
18.248552 224.755457 l
18.248552 225.501114 l
18.248552 226.246771 l
18.248552 226.992428 l
18.248552 227.738085 l
18.248552 228.483742 l
18.248552 229.229399 l
18.248552 229.975056 l
18.248552 230.720713 l
18.248552 231.46637 l
18.248552 232.212027 l
18.248552 232.957684 l
18.248552 233.703341 l
18.248552 234.448998 l
18.248552 235.194655 l
18.248552 235.940312 l
18.248552 236.685969 l
18.248552 237.431626 l
18.248552 238.177283 l
18.248552 238.92294 l
18.248552 239.668597 l
18.248552 240.414254 l
18.248552 241.159911 l
18.248552 241.905568 l
18.248552 242.651225 l
18.248552 243.396882 l
18.248552 244.142539 l
18.248552 244.888196 l
18.248552 245.633853 l
18.248552 246.37951 l
18.248552 247.125167 l
18.248552 247.870824 l
18.248552 248.616481 l
18.248552 249.362138 l
18.248552 250.107795 l
18.248552 250.853452 l
18.248552 251.599109 l
18.248552 252.344766 l
18.248552 253.090423 l
18.248552 253.83608 l
18.248552 254.581737 l
18.248552 255.327394 l
18.248552 256.073051 l
18.248552 256.818708 l
18.248552 257.564365 l
18.248552 258.310022 l
18.248552 259.055679 l
18.248552 259.801336 l
18.248552 260.546993 l
18.248552 261.29265 l
18.248552 262.038307 l
18.248552 262.783964 l
18.248552 263.529621 l
18.248552 264.275278 l
18.248552 265.020935 l
18.248552 265.766592 l
18.248552 266.512249 l
18.248552 267.257906 l
18.248552 268.003563 l
18.248552 268.74922 l
18.248552 269.494878 l
18.248552 270.240535 l
18.248552 270.986192 l
18.248552 271.731849 l
18.248552 272.477506 l
18.248552 273.223163 l
18.248552 273.96882 l
18.248552 274.714477 l
18.248552 275.460134 l
18.248552 276.205791 l
18.248552 276.951448 l
18.248552 277.697105 l
18.248552 278.442762 l
18.248552 279.188419 l
18.248552 279.934076 l
18.248552 280.679733 l
18.248552 281.42539 l
18.248552 282.171047 l
18.248552 282.916704 l
18.248552 283.662361 l
18.248552 284.408018 l
18.248552 285.153675 l
18.248552 285.899332 l
18.248552 286.644989 l
18.248552 287.390646 l
18.248552 288.136303 l
18.248552 288.88196 l
18.248552 289.627617 l
18.248552 290.373274 l
18.248552 291.118931 l
18.248552 291.864588 l
18.248552 292.610245 l
18.248552 293.355902 l
18.248552 294.101559 l
18.248552 294.847216 l
18.248552 295.592873 l
18.248552 296.33853 l
18.248552 297.084187 l
18.248552 297.829844 l
18.248552 298.575501 l
18.248552 299.321158 l
18.248552 300.066815 l
18.248552 300.812472 l
18.248552 301.558129 l
18.248552 302.303786 l
18.248552 303.049443 l
18.248552 303.7951 l
18.248552 304.540757 l
18.248552 305.286414 l
18.248552 306.032071 l
18.248552 306.777728 l
18.248552 307.523385 l
18.248552 308.269042 l
18.248552 309.014699 l
18.248552 309.760356 l
18.248552 310.506013 l
18.248552 311.25167 l
18.248552 311.997327 l
18.248552 312.742984 l
18.248552 313.488641 l
18.248552 314.234298 l
18.248552 314.979955 l
18.248552 315.725612 l
18.248552 316.471269 l
18.248552 317.216927 l
18.248552 317.962584 l
18.248552 318.708241 l
18.248552 319.453898 l
18.248552 320.199555 l
18.248552 320.945212 l
18.248552 321.690869 l
18.248552 322.436526 l
18.248552 323.182183 l
18.248552 323.92784 l
18.248552 324.673497 l
18.248552 325.419154 l
18.248552 326.164811 l
18.248552 326.910468 l
18.248552 327.656125 l
18.248552 328.401782 l
18.248552 329.147439 l
18.248552 329.893096 l
18.248552 330.638753 l
18.248552 331.38441 l
18.248552 332.130067 l
18.248552 332.875724 l
18.248552 333.621381 l
18.248552 334.367038 l
18.248552 335.112695 l
18.248552 335.858352 l
18.248552 336.604009 l
18.248552 337.349666 l
18.248552 338.095323 l
18.248552 338.84098 l
18.248552 339.586637 l
18.248552 340.332294 l
18.248552 341.077951 l
18.248552 341.823608 l
18.248552 342.569265 l
18.248552 343.314922 l
18.248552 344.060579 l
18.248552 344.806236 l
18.248552 345.551893 l
18.248552 346.29755 l
18.248552 347.043207 l
18.248552 347.788864 l
18.248552 348.534521 l
18.248552 349.280178 l
18.248552 350.025835 l
18.248552 350.771492 l
18.248552 351.517149 l
18.248552 352.262806 l
18.248552 353.008463 l
18.248552 353.75412 l
18.248552 354.499777 l
18.248552 355.245434 l
18.248552 355.991091 l
18.248552 356.736748 l
18.248552 357.482405 l
18.248552 358.228062 l
18.248552 358.973719 l
18.248552 359.719376 l
18.248552 360.465033 l
18.248552 361.21069 l
18.248552 361.956347 l
18.248552 362.702004 l
18.248552 363.447661 l
18.248552 364.193318 l
18.248552 364.938976 l
18.248552 365.684633 l
18.248552 366.43029 l
18.248552 367.175947 l
18.248552 367.921604 l
18.248552 368.667261 l
18.248552 369.412918 l
18.248552 370.158575 l
18.248552 370.904232 l
18.248552 371.649889 l
18.248552 372.395546 l
18.248552 373.141203 l
18.248552 373.88686 l
18.248552 374.632517 l
18.248552 375.378174 l
18.248552 376.123831 l
18.248552 376.869488 l
18.248552 377.615145 l
18.248552 378.360802 l
18.248552 379.106459 l
18.248552 379.852116 l
18.248552 380.597773 l
18.248552 381.34343 l
18.248552 382.089087 l
18.248552 382.834744 l
18.248552 383.580401 l
18.248552 384.326058 l
18.248552 385.071715 l
18.248552 385.817372 l
18.248552 386.563029 l
18.248552 387.308686 l
18.248552 388.054343 l
18.248552 388.8 l
cl
  << /PatternType 1
     /PaintType 2
     /TilingType 2
     /BBox[0 0 72 72]
     /XStep 72
     /YStep 72

     /PaintProc {
        pop
        0 setlinewidth
-36 36 m
36 108 l
-30 30 m
42 102 l
-24 24 m
48 96 l
-18 18 m
54 90 l
-12 12 m
60 84 l
-6 6 m
66 78 l
0 0 m
72 72 l
6 -6 m
78 66 l
12 -12 m
84 60 l
18 -18 m
90 54 l
24 -24 m
96 48 l
30 -30 m
102 42 l
36 -36 m
108 36 l
          stroke
     } bind
   >>
   matrix
   makepattern
   /H0 exch def
gsave
[/Pattern [/DeviceRGB]] setcolorspace 0.000000 0.000000 0.000000 H0 setcolor fill grestore
grestore
1.000 setlinewidth
1 setlinejoin
0 setlinecap
[] 0 setdash
0.000 setgray
gsave
111.1 334.8 18.25 54 clipbox
18.248552 224.235002 m
22.722494 224.111421 l
27.196437 223.758646 l
30.953799 223.264143 l
34.827831 222.518486 l
38.381292 221.604269 l
49.566147 218.492963 l
54.040089 217.57832 l
58.514031 216.877694 l
63.73363 216.307154 l
68.953229 215.987371 l
74.172829 215.891359 l
79.392428 216.026237 l
84.612027 216.383941 l
89.085969 216.891618 l
93.559911 217.590171 l
98.033853 218.49697 l
102.507795 219.624551 l
114.438307 222.849873 l
118.166592 223.476206 l
122.640535 223.95099 l
127.114477 224.191174 l
129.351448 224.226317 l
129.351448 224.226317 l
stroke
grestore
0 setlinejoin
2 setlinecap
gsave
129.351448 54 m
129.351448 388.8 l
stroke
grestore
gsave
18.248552 54 m
129.351448 54 l
stroke
grestore
gsave
18.248552 54 m
18.248552 388.8 l
stroke
grestore
gsave
18.248552 388.8 m
129.351448 388.8 l
stroke
grestore

end
showpage
%%EOF
