%!PS-Adobe-3.0
%%Title: alpha_1.ps
%%Creator: matplotlib version 1.5.0, http://matplotlib.org/
%%CreationDate: Wed Apr  6 23:54:23 2016
%%Orientation: portrait
%%DocumentPaperSizes: letter
%%BoundingBox: 234 180 378 612
%%Pages: 1
%%EndComments
%%BeginProlog
/mpldict 7 dict def
mpldict begin
/m { moveto } bind def
/l { lineto } bind def
/r { rlineto } bind def
/c { curveto } bind def
/cl { closepath } bind def
/box {
m
1 index 0 r
0 exch r
neg 0 r
cl
} bind def
/clipbox {
box
clip
newpath
} bind def
end
%%EndProlog
%%Page: 1 1
mpldict begin
234 180 translate
144 432 0 0 clipbox
100000 setmiterlimit
gsave
0 0 m
144 0 l
144 432 l
0 432 l
cl
1.000 setgray
fill
grestore
gsave
18.248552 54 m
129.351448 54 l
129.351448 388.8 l
18.248552 388.8 l
cl
1.000 setgray
fill
grestore
gsave
111.1 334.8 18.25 54 clipbox
65.970601 333.237266 m
66.716258 333.247512 l
67.461915 333.247728 l
68.207572 333.247697 l
68.953229 333.247686 l
69.698886 333.247677 l
70.444543 333.247669 l
71.1902 333.247662 l
71.935857 333.247658 l
72.681514 333.247655 l
73.427171 333.247653 l
74.172829 333.247653 l
74.918486 333.247655 l
75.664143 333.247658 l
76.4098 333.247662 l
77.155457 333.247669 l
77.901114 333.247677 l
78.646771 333.247686 l
79.392428 333.247717 l
80.138085 333.247488 l
80.883742 333.237079 l
81.255265 332.875724 l
81.629399 332.511866 l
82.375056 332.502186 l
83.120713 332.502041 l
83.86637 332.502022 l
84.612027 332.502045 l
85.357684 332.502068 l
86.103341 332.50211 l
86.848998 332.50193 l
87.594655 332.491942 l
87.966204 332.130067 l
88.340312 331.765849 l
89.085969 331.756627 l
89.831626 331.756501 l
90.577283 331.756501 l
91.32294 331.756551 l
92.068597 331.756427 l
92.814254 331.747066 l
93.185914 331.38441 l
93.559911 331.019677 l
94.305568 331.011093 l
95.051225 331.011 l
95.796882 331.010889 l
96.542539 331.002032 l
96.914302 330.638753 l
97.288196 330.273624 l
98.033853 330.265532 l
98.77951 330.265451 l
99.525167 330.265384 l
100.270824 330.257185 l
100.642746 329.893096 l
101.016481 329.527467 l
101.762138 329.520002 l
102.507795 329.519861 l
103.253452 329.512172 l
103.625508 329.147439 l
103.999109 328.781423 l
104.744766 328.774438 l
105.490423 328.774332 l
106.23608 328.767243 l
106.608296 328.401782 l
106.981737 328.035343 l
107.727394 328.028852 l
108.473051 328.022065 l
108.84537 327.656125 l
109.218708 327.289413 l
109.964365 327.283274 l
110.710022 327.276914 l
111.082456 326.910468 l
111.455679 326.543459 l
112.201336 326.537713 l
112.946993 326.537673 l
113.69265 326.53209 l
114.065285 326.164811 l
114.438307 325.797325 l
115.183964 325.792175 l
115.929621 325.78698 l
116.302381 325.419154 l
116.675278 325.051361 l
117.420935 325.041638 l
117.793755 324.673497 l
118.166592 324.305557 l
118.912249 324.300986 l
119.657906 324.296457 l
120.030837 323.92784 l
120.403563 323.559565 l
121.14922 323.555356 l
121.894878 323.550839 l
122.267818 323.182183 l
122.640535 322.813878 l
123.386192 322.809692 l
124.131849 322.809648 l
124.877506 322.805179 l
125.250446 322.436526 l
125.623163 322.068221 l
126.36882 322.064033 l
127.114477 322.063986 l
127.860134 322.063984 l
128.605791 322.063984 l
129.351448 322.063984 l
129.351448 321.690869 l
129.351448 320.945212 l
129.351448 320.199555 l
129.351448 319.453898 l
129.351448 318.708241 l
129.351448 317.962584 l
129.351448 317.216927 l
129.351448 316.471269 l
129.351448 315.725612 l
129.351448 314.979955 l
129.351448 314.234298 l
129.351448 313.488641 l
129.351448 312.742984 l
129.351448 311.997327 l
129.351448 311.25167 l
129.351448 310.506013 l
129.351448 309.760356 l
129.351448 309.014699 l
129.351448 308.269042 l
129.351448 307.523385 l
129.351448 306.777728 l
129.351448 306.032071 l
129.351448 305.286414 l
129.351448 304.540757 l
129.351448 303.7951 l
129.351448 303.049443 l
129.351448 302.303786 l
129.351448 301.558129 l
129.351448 300.812472 l
129.351448 300.066815 l
129.351448 299.321158 l
129.351448 298.575501 l
129.351448 297.829844 l
129.351448 297.084187 l
129.351448 296.33853 l
129.351448 295.592873 l
129.351448 294.847216 l
129.351448 294.101559 l
129.351448 293.355902 l
129.351448 292.610245 l
129.351448 291.864588 l
129.351448 291.118931 l
129.351448 290.373274 l
129.351448 289.627617 l
129.351448 288.88196 l
129.351448 288.136303 l
129.351448 287.390646 l
129.351448 286.644989 l
129.351448 285.899332 l
129.351448 285.153675 l
129.351448 284.408018 l
129.351448 283.662361 l
129.351448 282.916704 l
129.351448 282.171047 l
129.351448 281.42539 l
129.351448 280.679733 l
129.351448 279.934076 l
129.351448 279.188419 l
129.351448 278.442762 l
129.351448 277.697105 l
129.351448 276.951448 l
129.351448 276.205791 l
129.351448 275.460134 l
129.351448 274.714477 l
129.351448 273.96882 l
129.351448 273.223163 l
129.351448 272.477506 l
129.351448 271.731849 l
129.351448 270.986192 l
129.351448 270.240535 l
129.351448 269.494878 l
129.351448 268.74922 l
129.351448 268.003563 l
129.351448 267.257906 l
129.351448 266.512249 l
129.351448 265.766592 l
129.351448 265.020935 l
129.351448 264.275278 l
129.351448 263.529621 l
129.351448 262.783964 l
129.351448 262.038307 l
129.351448 261.29265 l
129.351448 260.546993 l
129.351448 259.801336 l
129.351448 259.055679 l
129.351448 258.310022 l
129.351448 257.564365 l
129.351448 256.818708 l
129.351448 256.073051 l
129.351448 255.327394 l
129.351448 254.581737 l
129.351448 253.83608 l
129.351448 253.090423 l
129.351448 252.344766 l
129.351448 251.599109 l
129.351448 250.853452 l
129.351448 250.107795 l
129.351448 249.362138 l
129.351448 248.616481 l
129.351448 247.870824 l
129.351448 247.125167 l
129.351448 246.37951 l
129.351448 245.633853 l
129.351448 244.888196 l
129.351448 244.142539 l
129.351448 243.396882 l
129.351448 242.651225 l
129.351448 241.905568 l
129.351448 241.159911 l
129.351448 240.414254 l
129.351448 239.668597 l
129.351448 238.92294 l
129.351448 238.177283 l
129.351448 237.431626 l
129.351448 236.685969 l
129.351448 235.940312 l
129.351448 235.194655 l
129.351448 234.448998 l
129.351448 233.703341 l
129.351448 232.957684 l
129.351448 232.584569 l
128.605791 232.584569 l
127.860134 232.584569 l
127.114477 232.584569 l
126.36882 232.584566 l
125.623163 232.584519 l
124.877506 232.580331 l
124.504789 232.212027 l
124.131849 231.843373 l
123.386192 231.838904 l
122.640535 231.838859 l
121.894878 231.834672 l
121.522162 231.46637 l
121.14922 231.097664 l
120.403563 231.088926 l
120.030826 230.720713 l
119.657906 230.35217 l
118.912249 230.347575 l
118.166592 230.342942 l
117.793748 229.975056 l
117.420935 229.607043 l
116.675278 229.602003 l
115.929621 229.596965 l
115.556644 229.229399 l
115.183964 228.861946 l
114.438307 228.856432 l
113.69265 228.850988 l
113.319543 228.483742 l
112.946993 228.11685 l
112.201336 228.110941 l
111.455679 228.11089 l
110.710022 228.104837 l
110.336712 227.738085 l
109.964365 227.372043 l
109.218708 227.365335 l
108.473051 227.358875 l
108.099627 226.992428 l
107.727394 226.626908 l
106.981737 226.61986 l
106.23608 226.619757 l
105.490423 226.612755 l
105.116822 226.246771 l
104.744766 225.88204 l
103.999109 225.874356 l
103.253452 225.874321 l
102.507795 225.87425 l
101.762138 225.866472 l
101.388315 225.501114 l
101.016481 225.137413 l
100.270824 225.128866 l
99.525167 225.128669 l
98.77951 225.120438 l
98.405574 224.755457 l
98.033853 224.392357 l
97.288196 224.383343 l
96.542539 224.383254 l
95.796882 224.383279 l
95.051225 224.383166 l
94.305568 224.374136 l
93.931454 224.0098 l
93.559911 223.647695 l
92.814254 223.637879 l
92.068597 223.637729 l
91.32294 223.637745 l
90.577283 223.637615 l
89.831626 223.628012 l
89.457419 223.264143 l
89.085969 222.902725 l
88.340312 222.89236 l
87.594655 222.892154 l
86.848998 222.892203 l
86.103341 222.892229 l
85.357684 222.892256 l
84.612027 222.892232 l
83.86637 222.892082 l
83.120713 222.88183 l
82.746446 222.518486 l
82.375056 222.157803 l
81.629399 222.146853 l
80.883742 222.146577 l
80.138085 222.146615 l
79.392428 222.146628 l
78.646771 222.146639 l
77.901114 222.146649 l
77.155457 222.146657 l
76.4098 222.146663 l
75.664143 222.146668 l
74.918486 222.146672 l
74.172829 222.146673 l
73.427171 222.146673 l
72.681514 222.146672 l
71.935857 222.146668 l
71.1902 222.146663 l
70.444543 222.146657 l
69.698886 222.146649 l
68.953229 222.146639 l
68.207572 222.146628 l
67.461915 222.146615 l
66.716258 222.146578 l
65.970601 222.146848 l
65.224944 222.157704 l
64.853544 222.518486 l
64.479287 222.881924 l
63.73363 222.892085 l
62.987973 222.892233 l
62.242316 222.892256 l
61.496659 222.892229 l
60.751002 222.892203 l
60.005345 222.892155 l
59.259688 222.892352 l
58.514031 222.902561 l
58.142565 223.264143 l
57.768374 223.628165 l
57.022717 223.63762 l
56.27706 223.637746 l
55.531403 223.637746 l
54.785746 223.637693 l
54.040089 223.63782 l
53.294432 223.647232 l
52.922819 224.0098 l
52.548775 224.374493 l
51.803118 224.383136 l
51.057461 224.383228 l
50.311804 224.383336 l
49.566147 224.392132 l
49.194402 224.755457 l
48.82049 225.120642 l
48.074833 225.128676 l
47.329176 225.128862 l
46.583519 225.137176 l
46.21166 225.501114 l
45.837862 225.866686 l
45.092205 225.874257 l
44.346548 225.874324 l
43.600891 225.874352 l
42.855234 225.881798 l
42.483153 226.246771 l
42.109577 226.612967 l
41.36392 226.619811 l
40.618263 226.626975 l
40.246084 226.992428 l
39.872606 227.358911 l
39.126949 227.365355 l
38.381292 227.365429 l
37.635635 227.371811 l
37.263265 227.738085 l
36.889978 228.105052 l
36.144321 228.110913 l
35.398664 228.11692 l
35.026171 228.483742 l
34.653007 228.851023 l
33.90735 228.856484 l
33.161693 228.862021 l
32.78907 229.229399 l
32.416036 229.597 l
31.670379 229.602054 l
30.924722 229.607114 l
30.551965 229.975056 l
30.179065 230.342979 l
29.433408 230.347623 l
28.687751 230.352213 l
28.314864 230.720713 l
27.942094 231.088956 l
27.196437 231.093208 l
26.45078 231.097712 l
26.077837 231.46637 l
25.705122 231.83467 l
24.959465 231.838856 l
24.213808 231.843371 l
23.840868 232.212027 l
23.468151 232.580331 l
22.722494 232.584519 l
21.976837 232.584566 l
21.23118 232.584569 l
20.485523 232.584569 l
19.739866 232.584569 l
18.994209 232.584569 l
18.248552 232.584569 l
18.248552 232.957684 l
18.248552 233.703341 l
18.248552 234.448998 l
18.248552 235.194655 l
18.248552 235.940312 l
18.248552 236.685969 l
18.248552 237.431626 l
18.248552 238.177283 l
18.248552 238.92294 l
18.248552 239.668597 l
18.248552 240.414254 l
18.248552 241.159911 l
18.248552 241.905568 l
18.248552 242.651225 l
18.248552 243.396882 l
18.248552 244.142539 l
18.248552 244.888196 l
18.248552 245.633853 l
18.248552 246.37951 l
18.248552 247.125167 l
18.248552 247.870824 l
18.248552 248.616481 l
18.248552 249.362138 l
18.248552 250.107795 l
18.248552 250.853452 l
18.248552 251.599109 l
18.248552 252.344766 l
18.248552 253.090423 l
18.248552 253.83608 l
18.248552 254.581737 l
18.248552 255.327394 l
18.248552 256.073051 l
18.248552 256.818708 l
18.248552 257.564365 l
18.248552 258.310022 l
18.248552 259.055679 l
18.248552 259.801336 l
18.248552 260.546993 l
18.248552 261.29265 l
18.248552 262.038307 l
18.248552 262.783964 l
18.248552 263.529621 l
18.248552 264.275278 l
18.248552 265.020935 l
18.248552 265.766592 l
18.248552 266.512249 l
18.248552 267.257906 l
18.248552 268.003563 l
18.248552 268.74922 l
18.248552 269.494878 l
18.248552 270.240535 l
18.248552 270.986192 l
18.248552 271.731849 l
18.248552 272.477506 l
18.248552 273.223163 l
18.248552 273.96882 l
18.248552 274.714477 l
18.248552 275.460134 l
18.248552 276.205791 l
18.248552 276.951448 l
18.248552 277.697105 l
18.248552 278.442762 l
18.248552 279.188419 l
18.248552 279.934076 l
18.248552 280.679733 l
18.248552 281.42539 l
18.248552 282.171047 l
18.248552 282.916704 l
18.248552 283.662361 l
18.248552 284.408018 l
18.248552 285.153675 l
18.248552 285.899332 l
18.248552 286.644989 l
18.248552 287.390646 l
18.248552 288.136303 l
18.248552 288.88196 l
18.248552 289.627617 l
18.248552 290.373274 l
18.248552 291.118931 l
18.248552 291.864588 l
18.248552 292.610245 l
18.248552 293.355902 l
18.248552 294.101559 l
18.248552 294.847216 l
18.248552 295.592873 l
18.248552 296.33853 l
18.248552 297.084187 l
18.248552 297.829844 l
18.248552 298.575501 l
18.248552 299.321158 l
18.248552 300.066815 l
18.248552 300.812472 l
18.248552 301.558129 l
18.248552 302.303786 l
18.248552 303.049443 l
18.248552 303.7951 l
18.248552 304.540757 l
18.248552 305.286414 l
18.248552 306.032071 l
18.248552 306.777728 l
18.248552 307.523385 l
18.248552 308.269042 l
18.248552 309.014699 l
18.248552 309.760356 l
18.248552 310.506013 l
18.248552 311.25167 l
18.248552 311.997327 l
18.248552 312.742984 l
18.248552 313.488641 l
18.248552 314.234298 l
18.248552 314.979955 l
18.248552 315.725612 l
18.248552 316.471269 l
18.248552 317.216927 l
18.248552 317.962584 l
18.248552 318.708241 l
18.248552 319.453898 l
18.248552 320.199555 l
18.248552 320.945212 l
18.248552 321.690869 l
18.248552 322.063984 l
18.994209 322.063984 l
19.739866 322.063984 l
20.485523 322.063984 l
21.23118 322.063986 l
21.976837 322.064033 l
22.722494 322.068221 l
23.095211 322.436526 l
23.468151 322.805179 l
24.213808 322.809648 l
24.959465 322.809692 l
25.705122 322.813882 l
26.077837 323.182183 l
26.45078 323.550889 l
27.196437 323.559537 l
27.569163 323.92784 l
27.942094 324.29649 l
28.687751 324.300981 l
29.433408 324.30536 l
29.806227 324.673497 l
30.179065 325.041795 l
30.924722 325.046554 l
31.670379 325.051325 l
32.043329 325.419154 l
32.416036 325.786906 l
33.161693 325.792124 l
33.90735 325.79729 l
34.280428 326.164811 l
34.653007 326.53202 l
35.398664 326.537696 l
36.144321 326.54325 l
36.517522 326.910468 l
36.889978 327.277147 l
37.635635 327.28327 l
38.381292 327.2892 l
38.754608 327.656125 l
39.126949 328.02229 l
39.872606 328.028757 l
40.618263 328.028835 l
41.36392 328.035309 l
41.737413 328.401782 l
42.109577 328.767176 l
42.855234 328.774382 l
43.600891 328.781222 l
43.974469 329.147439 l
44.346548 329.512403 l
45.092205 329.519864 l
45.837862 329.519995 l
46.583519 329.527267 l
46.95723 329.893096 l
47.329176 330.257407 l
48.074833 330.265389 l
48.82049 330.265449 l
49.566147 330.265526 l
50.311804 330.273436 l
50.685676 330.638753 l
51.057461 331.002239 l
51.803118 331.010895 l
52.548775 331.010997 l
53.294432 331.011088 l
54.040089 331.019509 l
54.414067 331.38441 l
54.785746 331.747249 l
55.531403 331.756434 l
56.27706 331.75655 l
57.022717 331.756501 l
57.768374 331.7565 l
58.514031 331.756622 l
59.259688 331.765717 l
59.633781 332.130067 l
60.005345 332.492086 l
60.751002 332.501936 l
61.496659 332.502109 l
62.242316 332.502068 l
62.987973 332.502044 l
63.73363 332.502059 l
64.479287 332.5022 l
65.224944 332.511716 l
65.599058 332.875724 l
cl
  << /PatternType 1
     /PaintType 2
     /TilingType 2
     /BBox[0 0 72 72]
     /XStep 72
     /YStep 72

     /PaintProc {
        pop
        0 setlinewidth
-36 36 m
36 108 l
-30 30 m
42 102 l
-24 24 m
48 96 l
-18 18 m
54 90 l
-12 12 m
60 84 l
-6 6 m
66 78 l
0 0 m
72 72 l
6 -6 m
78 66 l
12 -12 m
84 60 l
18 -18 m
90 54 l
24 -24 m
96 48 l
30 -30 m
102 42 l
36 -36 m
108 36 l
          stroke
     } bind
   >>
   matrix
   makepattern
   /H0 exch def
gsave
[/Pattern [/DeviceRGB]] setcolorspace 0.000000 0.000000 0.000000 H0 setcolor fill grestore
grestore
1.000 setlinewidth
1 setlinejoin
0 setlinecap
[] 0 setdash
0.000 setgray
gsave
111.1 334.8 18.25 54 clipbox
129.351448 322.063984 m
125.623163 322.068221 l
124.877506 322.805179 l
122.640535 322.813878 l
121.894878 323.550839 l
120.403563 323.559565 l
119.657906 324.296457 l
118.166592 324.305557 l
117.420935 325.041638 l
116.675278 325.051361 l
115.929621 325.78698 l
114.438307 325.797325 l
113.69265 326.53209 l
111.455679 326.543459 l
110.710022 327.276914 l
109.218708 327.289413 l
108.473051 328.022065 l
106.981737 328.035343 l
106.23608 328.767243 l
103.999109 328.781423 l
103.253452 329.512172 l
101.016481 329.527467 l
100.270824 330.257185 l
97.288196 330.273624 l
96.542539 331.002032 l
93.559911 331.019677 l
92.814254 331.747066 l
88.340312 331.765849 l
87.594655 332.491942 l
81.629399 332.511866 l
80.883742 333.237079 l
72.681514 333.247655 l
65.970601 333.237266 l
65.224944 332.511716 l
60.005345 332.492086 l
59.259688 331.765717 l
54.785746 331.747249 l
54.040089 331.019509 l
51.057461 331.002239 l
50.311804 330.273436 l
47.329176 330.257407 l
46.583519 329.527267 l
44.346548 329.512403 l
43.600891 328.781222 l
42.109577 328.767176 l
41.36392 328.035309 l
39.126949 328.02229 l
38.381292 327.2892 l
36.889978 327.277147 l
36.144321 326.54325 l
34.653007 326.53202 l
33.90735 325.79729 l
32.416036 325.786906 l
31.670379 325.051325 l
30.179065 325.041795 l
29.433408 324.30536 l
27.942094 324.29649 l
27.196437 323.559537 l
26.45078 323.550889 l
25.705122 322.813882 l
23.468151 322.805179 l
22.722494 322.068221 l
18.248552 322.063984 l
18.248552 322.063984 l
stroke
grestore
gsave
111.1 334.8 18.25 54 clipbox
18.248552 232.584569 m
23.468151 232.580331 l
24.213808 231.843371 l
25.705122 231.83467 l
26.45078 231.097712 l
27.942094 231.088956 l
28.687751 230.352213 l
30.179065 230.342979 l
30.924722 229.607114 l
32.416036 229.597 l
33.161693 228.862021 l
34.653007 228.851023 l
35.398664 228.11692 l
36.889978 228.105052 l
37.635635 227.371811 l
39.872606 227.358911 l
40.618263 226.626975 l
42.109577 226.612967 l
42.855234 225.881798 l
45.837862 225.866686 l
46.583519 225.137176 l
48.82049 225.120642 l
49.566147 224.392132 l
52.548775 224.374493 l
53.294432 223.647232 l
57.768374 223.628165 l
58.514031 222.902561 l
64.479287 222.881924 l
65.224944 222.157704 l
73.427171 222.146673 l
82.375056 222.157803 l
83.120713 222.88183 l
89.085969 222.902725 l
89.831626 223.628012 l
93.559911 223.647695 l
94.305568 224.374136 l
98.033853 224.392357 l
98.77951 225.120438 l
101.016481 225.137413 l
101.762138 225.866472 l
104.744766 225.88204 l
105.490423 226.612755 l
107.727394 226.626908 l
108.473051 227.358875 l
109.964365 227.372043 l
110.710022 228.104837 l
112.946993 228.11685 l
113.69265 228.850988 l
115.183964 228.861946 l
115.929621 229.596965 l
117.420935 229.607043 l
118.166592 230.342942 l
119.657906 230.35217 l
120.403563 231.088926 l
121.14922 231.097664 l
121.894878 231.834672 l
124.131849 231.843373 l
124.877506 232.580331 l
129.351448 232.584569 l
129.351448 232.584569 l
stroke
grestore
0 setlinejoin
2 setlinecap
gsave
129.351448 54 m
129.351448 388.8 l
stroke
grestore
gsave
18.248552 54 m
129.351448 54 l
stroke
grestore
gsave
18.248552 54 m
18.248552 388.8 l
stroke
grestore
gsave
18.248552 388.8 m
129.351448 388.8 l
stroke
grestore

end
showpage
%%EOF
